4-soc/test_run_dir/AXI4Lite_Write_Path_with_Clock_Domain_Crossing_should_write_data_through_AXI4Lite_to_Memory_with_41_clock_ratio/AXI4WritePathTest_Anon.vcd
$date
2025-12-28T12:58+0000
$end
$version
0.2
$end
$comment

$end
$timescale 1ns  $end
$scope module AXI4WritePathTest_Anon $end
 $var wire 2 + CPU_clkdiv $end
 $var wire 1 - io_write_done $end
 $var wire 1 M io_debug_write $end
 $var wire 1 "& clock $end
 $var wire 1 "+ mem $end
 $var wire 1 ". master $end
 $var wire 1 "X started $end
 $var wire 1 "t write_complete $end
 $var wire 32 "} io_read_data $end
 $var wire 1 #! reset $end
 $var wire 1 #' slave $end
 $var wire 1 #8 CPU_tick $end
 $var wire 32 #C io_debug_addr $end
  $scope module slave $end
   $var wire 32 " io_channels_write_address_channel_AWADDR $end
   $var wire 1 $ io_channels_write_address_channel_AWVALID $end
   $var wire 1 * io_channels_write_data_channel_WVALID $end
   $var wire 1 1 io_channels_read_data_channel_RREADY $end
   $var wire 1 7 RVALID $end
   $var wire 1 E write $end
   $var wire 1 H AWREADY $end
   $var wire 1 O io_bundle_write_strobe_3 $end
   $var wire 1 P io_bundle_write_strobe_0 $end
   $var wire 1 Q io_bundle_write_strobe_1 $end
   $var wire 1 T io_bundle_write_strobe_2 $end
   $var wire 3 [ state $end
   $var wire 32 ` io_bundle_write_data $end
   $var wire 4 h io_channels_write_data_channel_WSTRB $end
   $var wire 1 l write_strobe_3 $end
   $var wire 1 m write_strobe_0 $end
   $var wire 1 n write_strobe_1 $end
   $var wire 1 o write_strobe_2 $end
   $var wire 1 q clock $end
   $var wire 1 w WREADY $end
   $var wire 32 { io_bundle_address $end
   $var wire 32 "$ io_channels_write_data_channel_WDATA $end
   $var wire 1 "% io_channels_read_address_channel_ARVALID $end
   $var wire 1 "' io_channels_write_response_channel_BVALID $end
   $var wire 1 "7 io_channels_write_data_channel_WREADY $end
   $var wire 1 ": ARREADY $end
   $var wire 1 "C io_channels_write_address_channel_AWREADY $end
   $var wire 1 "E io_channels_read_data_channel_RVALID $end
   $var wire 32 "J write_data $end
   $var wire 1 "W io_bundle_read_valid $end
   $var wire 1 "_ io_channels_write_response_channel_BREADY $end
   $var wire 1 "h io_channels_read_address_channel_ARREADY $end
   $var wire 32 "p addr $end
   $var wire 1 "w io_bundle_write $end
   $var wire 1 #$ reset $end
   $var wire 32 #, io_channels_read_address_channel_ARADDR $end
   $var wire 1 #1 BVALID $end
  $upscope $end
  $scope module mem $end
   $var wire 1 ! mem_1_io_debug_read_data_MPORT_en_pipe_0 $end
   $var wire 1 ) mem_0_io_debug_read_data_MPORT_en_pipe_0 $end
   $var wire 32 . io_instruction_address $end
   $var wire 16 0 io_debug_read_data_hi $end
   $var wire 1 9 mem_2_io_debug_read_data_MPORT_en_pipe_0 $end
   $var wire 8 ; mem_1_io_bundle_read_data_MPORT_addr_pipe_0 $end
   $var wire 32 = io_bundle_write_data $end
   $var wire 8 ? mem_0_io_debug_read_data_MPORT_addr_pipe_0 $end
   $var wire 8 @ mem_0_io_instruction_MPORT_addr_pipe_0 $end
   $var wire 1 N mem_3_io_debug_read_data_MPORT_en_pipe_0 $end
   $var wire 8 b mem_2 $end
   $var wire 8 c mem_1 $end
   $var wire 8 e mem_0 $end
   $var wire 8 g mem_1_io_debug_read_data_MPORT_addr_pipe_0 $end
   $var wire 8 r mem_3 $end
   $var wire 32 u io_debug_read_address $end
   $var wire 8 | write_data_vec_0 $end
   $var wire 8 } write_data_vec_1 $end
   $var wire 8 ~ write_data_vec_2 $end
   $var wire 8 "! write_data_vec_3 $end
   $var wire 1 "" clock $end
   $var wire 16 ") io_debug_read_data_lo $end
   $var wire 8 "2 mem_2_io_instruction_MPORT_addr_pipe_0 $end
   $var wire 1 "5 io_bundle_write_strobe_0 $end
   $var wire 1 "9 mem_2_io_instruction_MPORT_en_pipe_0 $end
   $var wire 1 "> io_bundle_write_strobe_1 $end
   $var wire 1 "? io_bundle_write_strobe_2 $end
   $var wire 1 "@ io_bundle_write_strobe_3 $end
   $var wire 8 "A mem_3_io_debug_read_data_MPORT_addr_pipe_0 $end
   $var wire 8 "D mem_0_io_bundle_read_data_MPORT_addr_pipe_0 $end
   $var wire 1 "G mem_0_io_bundle_read_data_MPORT_en_pipe_0 $end
   $var wire 1 "L mem_2_io_bundle_read_data_MPORT_en_pipe_0 $end
   $var wire 1 "V mem_1_io_bundle_read_data_MPORT_en_pipe_0 $end
   $var wire 1 "Y io_bundle_write_enable $end
   $var wire 32 "f io_debug_read_data $end
   $var wire 1 "i mem_3_io_instruction_MPORT_en_pipe_0 $end
   $var wire 1 "n mem_0_io_instruction_MPORT_en_pipe_0 $end
   $var wire 1 "r mem_1_io_instruction_MPORT_en_pipe_0 $end
   $var wire 8 "~ mem_3_io_instruction_MPORT_addr_pipe_0 $end
   $var wire 8 #" mem_1_io_instruction_MPORT_addr_pipe_0 $end
   $var wire 32 ## io_bundle_address $end
   $var wire 8 #7 mem_2_io_debug_read_data_MPORT_addr_pipe_0 $end
   $var wire 8 #: mem_2_io_bundle_read_data_MPORT_addr_pipe_0 $end
   $var wire 1 #; mem_3_io_bundle_read_data_MPORT_en_pipe_0 $end
   $var wire 8 #@ mem_3_io_bundle_read_data_MPORT_addr_pipe_0 $end
    $scope module mem_0 $end
     $var wire 8 L MPORT $end
      $scope module io_bundle_read_data_MPORT $end
       $var wire 1 # clk $end
       $var wire 8 8 addr $end
       $var wire 8 U data $end
       $var wire 1 #5 en $end
      $upscope $end
      $scope module MPORT $end
       $var wire 8 F addr $end
       $var wire 1 J en $end
       $var wire 8 d data $end
       $var wire 1 x mask $end
       $var wire 8 "3 pipeline_addr_0 $end
       $var wire 8 "8 pipeline_data_0 $end
       $var wire 1 "H clk $end
       $var wire 1 "T valid $end
       $var wire 1 #> pipeline_valid_0 $end
      $upscope $end
      $scope module io_debug_read_data_MPORT $end
       $var wire 1 Z en $end
       $var wire 8 f data $end
       $var wire 1 p clk $end
       $var wire 8 "1 addr $end
      $upscope $end
      $scope module io_instruction_MPORT $end
       $var wire 1 k clk $end
       $var wire 1 "l en $end
       $var wire 8 #9 addr $end
       $var wire 8 #? data $end
      $upscope $end
    $upscope $end
    $scope module mem_2 $end
     $var wire 8 % MPORT $end
      $scope module MPORT $end
       $var wire 8 , pipeline_data_0 $end
       $var wire 8 V pipeline_addr_0 $end
       $var wire 1 z pipeline_valid_0 $end
       $var wire 1 "P valid $end
       $var wire 1 "[ clk $end
       $var wire 8 "` data $end
       $var wire 8 "q addr $end
       $var wire 1 #/ en $end
       $var wire 1 #B mask $end
      $upscope $end
      $scope module io_debug_read_data_MPORT $end
       $var wire 1 Y clk $end
       $var wire 8 "I addr $end
       $var wire 1 "R en $end
       $var wire 8 #A data $end
      $upscope $end
      $scope module io_instruction_MPORT $end
       $var wire 1 a en $end
       $var wire 8 "u data $end
       $var wire 8 #% addr $end
       $var wire 1 #* clk $end
      $upscope $end
      $scope module io_bundle_read_data_MPORT $end
       $var wire 1 "e clk $end
       $var wire 8 "| data $end
       $var wire 1 #. en $end
       $var wire 8 #3 addr $end
      $upscope $end
    $upscope $end
    $scope module mem_3 $end
     $var wire 8 "g MPORT $end
      $scope module io_instruction_MPORT $end
       $var wire 1 & en $end
       $var wire 8 v addr $end
       $var wire 8 "* data $end
       $var wire 1 "] clk $end
      $upscope $end
      $scope module MPORT $end
       $var wire 1 : pipeline_valid_0 $end
       $var wire 1 C mask $end
       $var wire 1 K clk $end
       $var wire 8 ^ pipeline_data_0 $end
       $var wire 8 "( data $end
       $var wire 8 "0 addr $end
       $var wire 1 "N valid $end
       $var wire 1 "m en $end
       $var wire 8 #) pipeline_addr_0 $end
      $upscope $end
      $scope module io_debug_read_data_MPORT $end
       $var wire 1 G clk $end
       $var wire 8 R data $end
       $var wire 8 t addr $end
       $var wire 1 "s en $end
      $upscope $end
      $scope module io_bundle_read_data_MPORT $end
       $var wire 1 "6 clk $end
       $var wire 1 "b en $end
       $var wire 8 "y data $end
       $var wire 8 #+ addr $end
      $upscope $end
    $upscope $end
    $scope module mem_1 $end
     $var wire 8 "o MPORT $end
      $scope module io_instruction_MPORT $end
       $var wire 1 ' clk $end
       $var wire 8 "# data $end
       $var wire 8 "S addr $end
       $var wire 1 #< en $end
      $upscope $end
      $scope module MPORT $end
       $var wire 1 6 clk $end
       $var wire 8 D pipeline_addr_0 $end
       $var wire 1 S mask $end
       $var wire 1 y en $end
       $var wire 1 "Q valid $end
       $var wire 1 "c pipeline_valid_0 $end
       $var wire 8 "v data $end
       $var wire 8 "x pipeline_data_0 $end
       $var wire 8 #= addr $end
      $upscope $end
      $scope module io_bundle_read_data_MPORT $end
       $var wire 8 > addr $end
       $var wire 8 A data $end
       $var wire 1 #- clk $end
       $var wire 1 #0 en $end
      $upscope $end
      $scope module io_debug_read_data_MPORT $end
       $var wire 8 "B data $end
       $var wire 1 "K clk $end
       $var wire 8 "^ addr $end
       $var wire 1 "a en $end
      $upscope $end
    $upscope $end
  $upscope $end
  $scope module master $end
   $var wire 4 ( io_channels_write_data_channel_WSTRB $end
   $var wire 32 / io_bundle_write_data $end
   $var wire 1 2 io_bundle_write_strobe_3 $end
   $var wire 1 3 io_bundle_write_strobe_2 $end
   $var wire 1 4 io_bundle_write_strobe_1 $end
   $var wire 1 5 io_bundle_write_strobe_0 $end
   $var wire 1 < io_bundle_write_valid $end
   $var wire 32 B io_channels_write_address_channel_AWADDR $end
   $var wire 1 I io_channels_write_data_channel_WVALID $end
   $var wire 1 W AWVALID $end
   $var wire 2 X io_channels_write_data_channel_WSTRB_lo $end
   $var wire 1 \ io_channels_read_data_channel_RVALID $end
   $var wire 1 ] io_channels_write_address_channel_AWREADY $end
   $var wire 1 _ io_channels_read_address_channel_ARREADY $end
   $var wire 1 i io_bundle_write $end
   $var wire 1 j io_channels_write_response_channel_BREADY $end
   $var wire 2 s io_channels_write_data_channel_WSTRB_hi $end
   $var wire 1 ", write_strobe_0 $end
   $var wire 1 "- write_strobe_1 $end
   $var wire 32 "/ addr $end
   $var wire 1 "4 write_valid $end
   $var wire 1 "; ARVALID $end
   $var wire 1 "< write_strobe_2 $end
   $var wire 1 "= write_strobe_3 $end
   $var wire 1 "F RREADY $end
   $var wire 1 "M clock $end
   $var wire 32 "O io_bundle_address $end
   $var wire 1 "U reset $end
   $var wire 1 "Z io_channels_write_data_channel_WREADY $end
   $var wire 1 "\ io_bundle_busy $end
   $var wire 3 "d state $end
   $var wire 1 "j WVALID $end
   $var wire 1 "k io_channels_read_data_channel_RREADY $end
   $var wire 1 "z io_bundle_read $end
   $var wire 1 "{ io_channels_read_address_channel_ARVALID $end
   $var wire 1 #& io_channels_write_address_channel_AWVALID $end
   $var wire 32 #( io_channels_read_address_channel_ARADDR $end
   $var wire 1 #2 BREADY $end
   $var wire 32 #4 io_channels_write_data_channel_WDATA $end
   $var wire 32 #6 write_data $end
   $var wire 1 #D io_channels_write_response_channel_BVALID $end
  $upscope $end
$upscope $end
$enddefinitions $end
$dumpvars
01
02
03
04
b00000000 g
05
b00000000 f
06
07
b00000000 c
09
b00000000 b
b00000000000000000000000000000000 "
0:
b00000000 e
b00000000 d
0<
b00000000 ^
b0000000000000000 0
b00000000 }
b00000000000000000000000000000000 =
0C
b00000000 |
0E
b00000000 v
b00 +
0G
0H
0I
b00000000 r
0J
0K
b00000000 t
b00000000000000000000000000000000 /
0M
b00000000000000000000000000000000 .
0N
0O
0P
0Q
0S
b00000000 L
0T
b00000000 F
0W
0Y
0Z
b00000000 D
b0000 (
0\
b00000000 ?
0]
b00000000 >
b00000000 A
0_
b00000000 @
0a
b00000000 V
0i
b00000000 R
0j
b00000000 U
0k
0l
0m
0n
0o
0p
0q
0w
0x
0y
0z
b0000000000000000 ")
b00000000 ~
0""
0"%
0"&
0"'
0"+
0",
0"-
0".
b00000000 "g
0"4
0"5
0"6
0"7
0"9
0":
b00000000 "o
0";
0"<
0"=
0">
0"?
0"@
0#!
b00000000 "q
0"C
0#$
b00000000 "v
b00000000 "u
0"E
0#&
0"F
0#'
0"G
0"H
b00000000 "y
0#*
b00000000 "x
0"K
b00000000 "~
0"L
0#-
0"M
0#.
b00000000 "|
0"N
0#/
0#0
0"P
0#1
0"Q
0#2
0"R
0"T
0#5
0"U
0"V
0"W
0#8
0"X
0"Y
0"Z
0#;
0"[
0#<
0"\
0"]
0#>
0"_
0"a
0#B
0"b
0"c
0#D
0"e
0"h
0"i
0"j
0"k
0"l
0"m
b000 [
0"n
0"r
0"s
0"t
0"w
b00000000000000000000000000000000 "p
0"z
b00000000000000000000000000000000 "f
0"{
b00 s
b00000000000000000000000000000000 "}
b00 X
b00000000000000000000000000000000 "/
b00000000000000000000000000000000 "$
b00000000000000000000000000000000 ##
b00000000000000000000000000000000 "O
b00000000000000000000000000000000 #4
b00000000000000000000000000000000 #(
b00000000000000000000000000000000 #,
b00000000000000000000000000000000 "J
b00000000000000000000000000000000 #C
b00000000000000000000000000000000 #6
b00000000 "#
b00000000 "!
b00000000 "*
b00000000 "(
b00000000 "3
b00000000 "2
b00000000 "1
b00000000 "0
b00000000 "8
b00000000 "B
b00000000 "A
b00000000 #"
b00000000 "D
b00000000 #%
b00000000 #+
b00000000 "I
b00000000 #)
b00000000 "S
b00000000 #3
b00000000 #7
b00000000 #:
b00000000 #9
b00000000 #@
b00000000 "^
b00000000 #?
b00000000 #=
b00000000 "`
b00000000 #A
b000 "d
b00000000 ,
b00000000 %
b00000000000000000000000000000000 `
b00000000 ;
b00000000000000000000000000000000 {
b00000000 8
b00000000000000000000000000000000 u
b00000000000000000000000000000000 B
b0000 h
0!
0#
0$
0&
0'
0)
0*
0-
$end
#0
1#$
1i
1"M
b00000000000000000000000100000000 "O
b11011110101011011011111011101111 /
1q
12
13
1"U
14
15
b00000000000000000000000100000000 u
1#8
1#!
#1
1"b
1"e
1"i
1"l
1"n
1"r
1"s
1!
1#
1&
1'
1)
16
19
b01000000 ?
1""
1"&
1G
1K
1N
b01000000 "1
1"6
1"9
1Y
1Z
b01000000 "A
1a
1"G
1"H
b01000000 g
1#*
b01000000 "I
1"K
1#-
1"L
1k
1#.
1#0
1p
1"R
1#5
b01000000 t
b01000000 #7
1"V
1#;
1"[
1#<
1"]
b01000000 "^
1"a
#6
0""
0#$
0#
0"e
0"&
0"H
0'
0G
0#*
0"K
0#-
0K
0k
0p
0"U
0"6
06
0Y
0"[
0"]
0#!
#11
1""
1#
1"e
1"&
1"H
1'
1G
1#*
1"K
1#-
b01 +
1K
1k
0"M
1p
0q
1"6
0#8
16
1Y
1"[
1"]
#16
0""
0#
0"e
0"&
0"H
0'
0G
0#*
0"K
0#-
0K
0k
0p
0"6
06
0Y
0"[
0"]
#21
1""
1#
1"e
1"&
1"H
1'
1G
1#*
1"K
1#-
b10 +
1K
1k
1p
1"6
16
1Y
1"[
1"]
#26
0""
0#
0"e
0"&
0"H
0'
0G
0#*
0"K
0#-
0K
0k
0p
0"6
06
0Y
0"[
0"]
#31
1""
1#
1"e
1"&
1"H
1'
1G
1#*
1"K
1#-
b11 +
1K
1k
1p
1"6
16
1Y
1"[
1"]
#36
0""
0#
0"e
0"&
0"H
0'
0G
0#*
0"K
0#-
0K
0k
0p
0"6
06
0Y
0"[
0"]
#41
b100 "d
1"e
1"j
b00000000000000000000000100000000 "
1#
1$
1'
b1111 (
1*
b00 +
16
1""
b00000000000000000000000100000000 B
b11011110101011011011111011101111 "$
1"&
1G
1I
1",
1K
1"-
b00000000000000000000000100000000 "/
1"6
1W
b11 X
1Y
1"<
1"=
1#&
b00000000000000000000000100000000 #(
1"H
1#*
b1111 h
0i
b00000000000000000000000100000000 #,
1"K
1#-
1k
1"M
1p
1q
b11011110101011011011111011101111 #4
b11 s
b11011110101011011011111011101111 #6
1#8
1"X
1"[
1"\
1"]
#46
0""
0#
0"e
0"&
0"H
0'
0G
0#*
0"K
0#-
0K
0k
0p
0"6
06
0Y
0"[
0"]
#51
1""
1#
1"e
1"&
1"H
1'
1G
1#*
1"K
1#-
b01 +
1K
1k
0"M
1p
0q
1"6
0#8
16
1Y
1"[
1"]
#56
0""
0#
0"e
0"&
0"H
0'
0G
0#*
0"K
0#-
0K
0k
0p
0"6
06
0Y
0"[
0"]
#61
1""
1#
1"e
1"&
1"H
1'
1G
1#*
1"K
1#-
b10 +
1K
1k
1p
1"6
16
1Y
1"[
1"]
#66
0""
0#
0"e
0"&
0"H
0'
0G
0#*
0"K
0#-
0K
0k
0p
0"6
06
0Y
0"[
0"]
#71
1""
1#
1"e
1"&
1"H
1'
1G
1#*
1"K
1#-
b11 +
1K
1k
1p
1"6
16
1Y
1"[
1"]
#76
0""
0#
0"e
0"&
0"H
0'
0G
0#*
0"K
0#-
0K
0k
0p
0"6
06
0Y
0"[
0"]
#81
1""
1"e
1"&
1G
1H
1K
1"6
1Y
b011 [
1]
1"C
1#
1"H
1'
1#*
1"K
1#-
b00 +
1k
1"M
1p
1q
1#8
16
1"[
1"]
#86
0""
0#
0"e
0"&
0"H
0'
0G
0#*
0"K
0#-
0K
0k
0p
0"6
06
0Y
0"[
0"]
#91
1""
1#
1"e
1"&
1"H
1'
1G
1#*
1"K
1#-
b01 +
1K
1k
0"M
1p
0q
1"6
0#8
16
1Y
1"[
1"]
#96
0""
0#
0"e
0"&
0"H
0'
0G
0#*
0"K
0#-
0K
0k
0p
0"6
06
0Y
0"[
0"]
#101
1""
1#
1"e
1"&
1"H
1'
1G
1#*
1"K
1#-
b10 +
1K
1k
1p
1"6
16
1Y
1"[
1"]
#106
0""
0#
0"e
0"&
0"H
0'
0G
0#*
0"K
0#-
0K
0k
0p
0"6
06
0Y
0"[
0"]
#111
1""
1#
1"e
1"&
1"H
1'
1G
1#*
1"K
1#-
b11 +
1K
1k
1p
1"6
16
1Y
1"[
1"]
#116
0""
0#
0"e
0"&
0"H
0'
0G
0#*
0"K
0#-
0K
0k
0p
0"6
06
0Y
0"[
0"]
#121
1""
b00000000000000000000000100000000 #C
1"e
1"&
b01000000 F
1G
0H
1K
b01000000 "0
b00000000000000000000000100000000 "p
b01000000 "q
1"6
1"7
0W
1Y
b100 [
0]
b00000000000000000000000100000000 ##
0"C
1#
0#&
0$
1"H
1'
1#*
1"K
1#-
b00 +
1k
1"M
1p
1q
1#8
16
1w
1"Z
1"[
b01000000 #=
b00000000000000000000000100000000 {
1"]
#126
0""
0#
0"e
0"&
0"H
0'
0G
0#*
0"K
0#-
0K
0k
0p
0"6
06
0Y
0"[
0"]
#131
1""
1"e
b01000000 D
1"&
1G
1K
b01000000 "3
1"6
b01000000 V
1Y
b01000000 "D
1#
b01000000 #)
1"H
1'
1#*
b01000000 #+
1"K
1#-
b01 +
1k
0"M
1p
b01000000 #3
0q
0#8
16
b01000000 #:
b01000000 8
1"[
b01000000 ;
1"]
b01000000 #@
b01000000 >
#136
0""
0#
0"e
0"&
0"H
0'
0G
0#*
0"K
0#-
0K
0k
0p
0"6
06
0Y
0"[
0"]
#141
1""
1#
1"e
1"&
1"H
1'
1G
1#*
1"K
1#-
b10 +
1K
1k
1p
1"6
16
1Y
1"[
1"]
#146
0""
0#
0"e
0"&
0"H
0'
0G
0#*
0"K
0#-
0K
0k
0p
0"6
06
0Y
0"[
0"]
#151
1""
1#
1"e
1"&
1"H
1'
1G
1#*
1"K
1#-
b11 +
1K
1k
1p
1"6
16
1Y
1"[
1"]
#156
0""
0#
0"e
0"&
0"H
0'
0G
0#*
0"K
0#-
0K
0k
0p
0"6
06
0Y
0"[
0"]
#161
b101 "d
1"e
0"j
1"m
b10111110 "v
1"w
1#
1'
0*
b00 +
16
b11011110101011011011111011101111 =
b11011110 "!
1""
1C
1"&
1E
b11011110 "(
1G
0I
1J
1K
1M
1O
1P
1Q
1S
1"5
1T
1"6
0"7
1Y
b101 [
1">
1"?
1"@
b11011110101011011011111011101111 `
b11101111 d
1"H
1#*
b11011110101011011011111011101111 "J
1"K
1j
1#-
1k
1"M
1l
1"N
1#/
1m
1n
1"P
1o
1#2
1"Q
1p
1q
1"T
1#8
0w
1"Y
1x
0"Z
1y
1"[
1"]
b11101111 |
b10111110 }
1"_
b10101101 ~
b10101101 "`
1#B
#166
0""
0#
0"e
0"&
0"H
0'
0G
0#*
0"K
0#-
0K
0k
0p
0"6
06
0Y
0"[
0"]
#171
1""
b10111110 A
1"c
1"e
1"&
b11011110101011011011111011101111 "f
1G
b1011111011101111 ")
1K
b11011110 R
1"6
b11101111 U
b11101111 "8
b10111110 "x
b11011110 "y
1Y
b10101101 "|
b11011110101011011011111011101111 "}
b11011110 ^
b10111110 "B
1#
b11101111 f
1"H
1'
1#*
1"K
1#-
b01 +
1k
0"M
b10101101 ,
b1101111010101101 0
1p
0q
0#8
16
1"[
1:
1z
1"]
1#>
b10101101 #A
#176
0""
0#
0"e
0"&
0"H
0'
0G
0#*
0"K
0#-
0K
0k
0p
0"6
06
0Y
0"[
0"]
#181
1""
1#
1"e
1"&
1"H
1'
1G
1#*
1"K
1#-
b10 +
1K
1k
1p
1"6
16
1Y
1"[
1"]
#186
0""
0#
0"e
0"&
0"H
0'
0G
0#*
0"K
0#-
0K
0k
0p
0"6
06
0Y
0"[
0"]
#191
1""
1#
1"e
1"&
1"H
1'
1G
1#*
1"K
1#-
b11 +
1K
1k
1p
1"6
16
1Y
1"[
1"]
#196
0""
0#
0"e
0"&
0"H
0'
0G
0#*
0"K
0#-
0K
0k
0p
0"6
06
0Y
0"[
0"]
#201
1""
1#D
1"e
1"&
0E
1"'
1G
0J
1K
0"m
0M
1"6
0"w
1Y
1#
1"H
1'
1#*
1"K
1#-
b00 +
1k
1"M
0"N
0#/
1#1
0"P
0"Q
1p
1q
0"T
1#8
16
0"Y
0y
1"[
1"]
#206
0""
0#
0"e
0"&
0"H
0'
0G
0#*
0"K
0#-
0K
0k
0p
0"6
06
0Y
0"[
0"]
#211
1""
0"c
1"e
1"&
1G
1K
1"6
1Y
1#
1"H
1'
1#*
1"K
1#-
b01 +
1k
0"M
1p
0q
0#8
16
1"[
0:
0z
1"]
0#>
#216
0""
0#
0"e
0"&
0"H
0'
0G
0#*
0"K
0#-
0K
0k
0p
0"6
06
0Y
0"[
0"]
#221
1""
1#
1"e
1"&
1"H
1'
1G
1#*
1"K
1#-
b10 +
1K
1k
1p
1"6
16
1Y
1"[
1"]
#226
0""
0#
0"e
0"&
0"H
0'
0G
0#*
0"K
0#-
0K
0k
0p
0"6
06
0Y
0"[
0"]
#231
1""
1#
1"e
1"&
1"H
1'
1G
1#*
1"K
1#-
b11 +
1K
1k
1p
1"6
16
1Y
1"[
1"]
#236
0""
0#
0"e
0"&
0"H
0'
0G
0#*
0"K
0#-
0K
0k
0p
0"6
06
0Y
0"[
0"]
#241
1""
0#D
b000 "d
1"e
1"&
0"'
1G
1K
1"4
1"6
1Y
b000 [
1#
1"H
1'
1#*
1"K
0j
1#-
b00 +
1k
1"M
0#1
0#2
1p
1q
1#8
16
1"[
0"\
1"]
1<
0"_
#246
0""
0#
0"e
0"&
0"H
0'
0G
0#*
0"K
0#-
0K
0k
0p
0"6
06
0Y
0"[
0"]
#251
1""
1"e
1"&
1G
1K
1"t
1"6
1Y
1#
1"H
1'
1#*
1"K
1#-
b01 +
1k
0"M
1-
1p
0q
0#8
16
1"[
1"]
#256
0""
0#
0"e
0"&
0"H
0'
0G
0#*
0"K
0#-
0K
0k
0p
0"6
06
0Y
0"[
0"]
#261
1""
1#
1"e
1"&
1"H
1'
1G
1#*
1"K
1#-
b10 +
1K
1k
1p
1"6
16
1Y
1"[
1"]
#266
0""
0#
0"e
0"&
0"H
0'
0G
0#*
0"K
0#-
0K
0k
0p
0"6
06
0Y
0"[
0"]
#271
1""
1#
1"e
1"&
1"H
1'
1G
1#*
1"K
1#-
b11 +
1K
1k
1p
1"6
16
1Y
1"[
1"]
#276
0""
0#
0"e
0"&
0"H
0'
0G
0#*
0"K
0#-
0K
0k
0p
0"6
06
0Y
0"[
0"]
#281
1""
1"e
1"&
1G
1K
0"4
1"6
1Y
1#
1"H
1'
1#*
1"K
1#-
b00 +
1k
1"M
1p
1q
1#8
16
1"[
1"]
0<
#286
0""
0#
0"e
0"&
0"H
0'
0G
0#*
0"K
0#-
0K
0k
0p
0"6
06
0Y
0"[
0"]
#291
1""
1#
1"e
1"&
1"H
1'
1G
1#*
1"K
1#-
b01 +
1K
1k
0"M
1p
0q
1"6
0#8
16
1Y
1"[
1"]
#296
0""
0#
0"e
0"&
0"H
0'
0G
0#*
0"K
0#-
0K
0k
0p
0"6
06
0Y
0"[
0"]
#301
1""
1#
1"e
1"&
1"H
1'
1G
1#*
1"K
1#-
b10 +
1K
1k
1p
1"6
16
1Y
1"[
1"]
#306
0""
0#
0"e
0"&
0"H
0'
0G
0#*
0"K
0#-
0K
0k
0p
0"6
06
0Y
0"[
0"]
#311
1""
1#
1"e
1"&
1"H
1'
1G
1#*
1"K
1#-
b11 +
1K
1k
1p
1"6
16
1Y
1"[
1"]
#316
0""
0#
0"e
0"&
0"H
0'
0G
0#*
0"K
0#-
0K
0k
0p
0"6
06
0Y
0"[
0"]
#321
1""
1#
1"e
1"&
1"H
1'
1G
1#*
1"K
1#-
b00 +
1K
1k
1"M
1p
1q
1"6
1#8
16
1Y
1"[
1"]
#326
0""
0#
0"e
0"&
0"H
0'
0G
0#*
0"K
0#-
0K
0k
0p
0"6
06
0Y
0"[
0"]
#331
1""
1#
1"e
1"&
1"H
1'
1G
1#*
1"K
1#-
b01 +
1K
1k
0"M
1p
0q
1"6
0#8
16
1Y
1"[
1"]
#336
0""
0#
0"e
0"&
0"H
0'
0G
0#*
0"K
0#-
0K
0k
0p
0"6
06
0Y
0"[
0"]
#341
1""
1#
1"e
1"&
1"H
1'
1G
1#*
1"K
1#-
b10 +
1K
1k
1p
1"6
16
1Y
1"[
1"]
#346
0""
0#
0"e
0"&
0"H
0'
0G
0#*
0"K
0#-
0K
0k
0p
0"6
06
0Y
0"[
0"]
#351
1""
1#
1"e
1"&
1"H
1'
1G
1#*
1"K
1#-
b11 +
1K
1k
1p
1"6
16
1Y
1"[
1"]
